COOLTEST_TAGS_SEQ
COOLTEST_TAGS
COOLTEST_TAG2TAG_SEQ
COOLTEST_TAG2TAG
COOLTEST_NODES_SEQ
COOLTEST_NODES
COOLTEST_IOVS_SEQ
COOLTEST_F0010_IOVS_SEQ
COOLTEST_F0010_IOVS
COOLTEST_F0010_CHANNELS
COOLTEST_F0009_TAGS_SEQ
COOLTEST_F0009_TAGS
COOLTEST_F0009_IOVS_SEQ
COOLTEST_F0009_IOVS
COOLTEST_F0009_IOV2TAG
COOLTEST_F0009_CHANNELS
COOLTEST_F0008_TAGS_SEQ
COOLTEST_F0008_TAGS
COOLTEST_F0008_IOVS_SEQ
COOLTEST_F0008_IOVS
COOLTEST_F0008_IOV2TAG
COOLTEST_F0008_CHANNELS
COOLTEST_F0007_IOVS_SEQ
COOLTEST_F0007_IOVS
COOLTEST_F0007_CHANNELS
COOLTEST_F0006_IOVS_SEQ
COOLTEST_F0006_IOVS
COOLTEST_F0006_CHANNELS
COOLTEST_F0005_TAGS_SEQ
COOLTEST_F0004_TAGS_SEQ
COOLTEST_F0003_TAGS_SEQ
COOLTEST_F0002_TAGS_SEQ
COOLTEST_F0001_TAGS_SEQ
COOLTEST_F0000_TAGS_SEQ
COOLTEST_DB_ATTRIBUTES
